[
	{

	"model": "Manager.Estado",
	"pk": 1,
	"fields": 
		{
  		"estado": "SUSP. / CANCEL."
		}
	},
	{

	"model": "Manager.Estado",
	"pk": 2,
	"fields": 
		{
  		"estado": "EN ANALISIS"
		}
	},
	{
	"model": "Manager.Estado",
	"pk": 3,
	"fields": 
		{
  		"estado": "FINALIZADO"
		}
	},
	{
	"model": "Manager.Estado",
	"pk": 4,
	"fields": 
		{
  		"estado": "LICITACION / COMPRA"
		}
	},
	{
	"model": "Manager.Estado",
	"pk": 5,
	"fields": 
		{
  		"estado": "OBRA EN CURSO"
		}
	},
	{
	"model": "Manager.Estado",
	"pk": 6,
	"fields": 
		{
  		"estado": "SUSPENDIDO"
		}
	}
]