[
	{
	"model": "Manager.Rubro",
	"pk": 1,
	"fields": 
		{
  		"rubro": "CRECIMIENTO"
		}
	},
	
	{
	"model": "Manager.Rubro",
	"pk": 2,
	"fields": 
		{
  		"rubro": "MEJORA"
		}
	},

	{
	"model": "Manager.Rubro",
	"pk": 3,
	"fields": 
		{
  		"rubro": "SUPERVISION"
		}
	}
]